-r-xr-xr-x    2626880 bin32/createcert
-r-xr-xr-x    1868376 bin32/createkey
-r-xr-xr-x     459036 bin32/dbbackup
-r-xr-xr-x     509208 bin32/dbdsn
-r-xr-xr-x      46096 bin32/dbexternc17
-r-xr-xr-x     458744 bin32/dbfhide
-r-xr-xr-x     926336 bin32/dbisqlc
-r-xr-xr-x     506588 bin32/dblocate
-r-xr-xr-x     908300 bin32/dbns17
-r-xr-xr-x     473464 bin32/dbping
-r-xr-xr-x     855832 bin32/dbsupport
-r-xr-xr-x     524820 bin32/dbtsinfo
-r-xr-xr-x     464028 bin32/dbunload
-r-xr-xr-x     458908 bin32/dbupgrad
-r-xr-xr-x     458936 bin32/dbvalid
-r-xr-xr-x     472156 bin32/dbversion
-r-xr-xr-x       5250 bin32/htmlview
-r--r--r--       4124 bin32/jsenv.js
-r-xr-xr-x       4455 bin32/perlenv.pl
-r-xr-xr-x       7014 bin32/phpenv.php
-r-xr-xr-x    2593008 bin32/viewcert
-r-xr-xr-x    2668928 bin64/createcert
-r-xr-xr-x    1959592 bin64/createkey
-r-xr-xr-x     462352 bin64/dbbackup
-r-xr-xr-x     513328 bin64/dbdsn
-r-xr-xr-x      46096 bin64/dbexternc17
-r-xr-xr-x     462000 bin64/dbfhide
-r-xr-xr-x     930896 bin64/dbisqlc
-r-xr-xr-x     505040 bin64/dblocate
-r-xr-xr-x     906048 bin64/dbns17
-r-xr-xr-x     473904 bin64/dbping
-r-xr-xr-x     837680 bin64/dbsupport
-r-xr-xr-x     523992 bin64/dbtsinfo
-r-xr-xr-x     466928 bin64/dbunload
-r-xr-xr-x     462256 bin64/dbupgrad
-r-xr-xr-x     462224 bin64/dbvalid
-r-xr-xr-x     472928 bin64/dbversion
-r-xr-xr-x       5250 bin64/htmlview
-r--r--r--       4124 bin64/jsenv.js
-r-xr-xr-x       4455 bin64/perlenv.pl
-r-xr-xr-x       7014 bin64/phpenv.php
-r-xr-xr-x    2636928 bin64/viewcert
-r-xr-xr-x     431228 deployment/bin32/csconvert
-r-xr-xr-x    1545928 deployment/bin32/dbinstall
-r-xr-xr-x     249488 deployment/bin32/gsetup
-r-xr-xr-x     433120 deployment/bin64/csconvert
-r-xr-xr-x    1497240 deployment/bin64/dbinstall
-r-xr-xr-x     242592 deployment/bin64/gsetup
-rw-r--r--     110046 deployment/deploy.noarch.tic
-r-xr-xr-x       5177 deployment/deployment_wizard.sh
lrwxrwxrwx         15 deployment/lib32/libdbicu17.so
-r-xr-xr-x    1654176 deployment/lib32/libdbicu17.so.1
lrwxrwxrwx         17 deployment/lib32/libdbicu17_r.so
-r-xr-xr-x    1654752 deployment/lib32/libdbicu17_r.so.1
lrwxrwxrwx         17 deployment/lib32/libdbtasks17.so
-r-xr-xr-x     145468 deployment/lib32/libdbtasks17.so.1
lrwxrwxrwx         19 deployment/lib32/libdbtasks17_r.so
-r-xr-xr-x     166108 deployment/lib32/libdbtasks17_r.so.1
lrwxrwxrwx         15 deployment/lib64/libdbicu17.so
-r-xr-xr-x    1753872 deployment/lib64/libdbicu17.so.1
lrwxrwxrwx         17 deployment/lib64/libdbicu17_r.so
-r-xr-xr-x    1752944 deployment/lib64/libdbicu17_r.so.1
lrwxrwxrwx         17 deployment/lib64/libdbtasks17.so
-r-xr-xr-x     152528 deployment/lib64/libdbtasks17.so.1
lrwxrwxrwx         19 deployment/lib64/libdbtasks17_r.so
-r-xr-xr-x     167640 deployment/lib64/libdbtasks17_r.so.1
-r--r--r--    4272144 deployment/res/dbicudt17.dat
-r--r--r--      13593 deployment/res/language/all_langs_icon_resources_utf8.txt
-r-xr-xr-x      25438 deployment/res/language/common.sh
-r--r--r--      77546 deployment/res/language/de/messages.txt
-r--r--r--      70630 deployment/res/language/en/messages.txt
-r--r--r--      79185 deployment/res/language/fr/messages.txt
-r--r--r--      86656 deployment/res/language/ja/messages.txt
-r--r--r--      67709 deployment/res/language/zh/messages.txt
-r--r--r--       1164 deployment/res/scripts/array.sh
-r--r--r--       2217 deployment/res/scripts/checkupdates.sh
-r-xr-xr-x       1111 deployment/res/scripts/cleanup.sh
-r--r--r--       1547 deployment/res/scripts/client_flow.sh
-r--r--r--       6826 deployment/res/scripts/cmdline.sh
-r-xr-xr-x       5252 deployment/res/scripts/component_spt.sh
-rw-r--r--        462 deployment/res/scripts/config.sh
-r--r--r--      26728 deployment/res/scripts/console_ui.sh
-r--r--r--        414 deployment/res/scripts/csconvert.sh
-r--r--r--       1030 deployment/res/scripts/csh_support.sh
-r--r--r--       8795 deployment/res/scripts/dbcloud.sh
-r--r--r--       3536 deployment/res/scripts/dbcloud_flow.sh
-r--r--r--       1287 deployment/res/scripts/deploy_flow.sh
-r--r--r--        729 deployment/res/scripts/deploy_wizard.sh
-r--r--r--       7904 deployment/res/scripts/directory.sh
-r--r--r--       1954 deployment/res/scripts/diskspace.sh
-r--r--r--        986 deployment/res/scripts/distro.sh
-r--r--r--       1577 deployment/res/scripts/doc_flow.sh
-r--r--r--       1109 deployment/res/scripts/feature_tracking.sh
-r--r--r--      29567 deployment/res/scripts/generated.sh
-r-xr-xr-x      58694 deployment/res/scripts/installicon.sh
-r--r--r--      12506 deployment/res/scripts/interactive_ui.sh
-r-xr-xr-x        622 deployment/res/scripts/language.sh
-r--r--r--       7346 deployment/res/scripts/license.sh
-r--r--r--        410 deployment/res/scripts/licenser_flow.sh
-r--r--r--       2951 deployment/res/scripts/links.sh
-r--r--r--       4973 deployment/res/scripts/options.sh
-r--r--r--       4647 deployment/res/scripts/os.sh
-r--r--r--       9271 deployment/res/scripts/package.sh
-r--r--r--        996 deployment/res/scripts/panel.sh
-r--r--r--       2928 deployment/res/scripts/platform.sh
-rw-r--r--       3418 deployment/res/scripts/populate_menus.sh
-r--r--r--       2261 deployment/res/scripts/registration.sh
-r--r--r--        763 deployment/res/scripts/rollback.sh
-r--r--r--       9557 deployment/res/scripts/runinstall.sh
-r--r--r--       7006 deployment/res/scripts/samon.sh
-r--r--r--       3165 deployment/res/scripts/samon_flow.sh
-r--r--r--        838 deployment/res/scripts/sh_support.sh
-r-xr-xr-x       1019 deployment/res/scripts/shortcuts.sh
-r-xr-xr-x        545 deployment/res/scripts/sighndlr.sh
-r--r--r--       5902 deployment/res/scripts/silent_ui.sh
-r--r--r--       2014 deployment/res/scripts/sqlcentral.sh
-r--r--r--       5425 deployment/res/scripts/standard_flow.sh
-r--r--r--       1460 deployment/res/scripts/summary.sh
-r--r--r--        934 deployment/res/scripts/ui.sh
-r--r--r--       3133 deployment/res/scripts/upgrade.sh
-r-xr-xr-x       1014 deployment/res/scripts/user.sh
-r--r--r--       2803 deployment/res/scripts/utility.sh
-r--r--r--       2927 deployment/res/scripts/versioning.sh
-r--r--r--     320074 java/jodbc4.jar
-r--r--r--     318598 java/sajdbc4.jar
lrwxrwxrwx         14 lib32/libdbcapi.so
-r-xr-xr-x     145104 lib32/libdbcapi.so.1
lrwxrwxrwx         16 lib32/libdbcapi_r.so
-r-xr-xr-x     145108 lib32/libdbcapi_r.so.1
lrwxrwxrwx         20 lib32/libdbextenv17_r.so
-r-xr-xr-x     513292 lib32/libdbextenv17_r.so.1
lrwxrwxrwx         15 lib32/libdbicu17.so
-r-xr-xr-x    1654252 lib32/libdbicu17.so.1
lrwxrwxrwx         17 lib32/libdbicu17_r.so
-r-xr-xr-x    1654832 lib32/libdbicu17_r.so.1
lrwxrwxrwx         17 lib32/libdbicudt17.so
-r-xr-xr-x    4276740 lib32/libdbicudt17.so.1
lrwxrwxrwx         16 lib32/libdbjdbc17.so
-r-xr-xr-x    2671216 lib32/libdbjdbc17.so.1
lrwxrwxrwx         17 lib32/libdbjodbc17.so
-r-xr-xr-x    1269112 lib32/libdbjodbc17.so.1
lrwxrwxrwx         16 lib32/libdbldap17.so
-r-xr-xr-x    2057720 lib32/libdbldap17.so.1
lrwxrwxrwx         18 lib32/libdbldap17_r.so
-r-xr-xr-x    2057720 lib32/libdbldap17_r.so.1
lrwxrwxrwx         15 lib32/libdblib17.so
-r-xr-xr-x    1363116 lib32/libdblib17.so.1
lrwxrwxrwx         17 lib32/libdblib17_r.so
-r-xr-xr-x    1391504 lib32/libdblib17_r.so.1
lrwxrwxrwx         16 lib32/libdbodbc17.so
-r-xr-xr-x     115444 lib32/libdbodbc17.so.1
lrwxrwxrwx         18 lib32/libdbodbc17_n.so
-r-xr-xr-x    1608312 lib32/libdbodbc17_n.so.1
lrwxrwxrwx         18 lib32/libdbodbc17_r.so
-r-xr-xr-x    1637848 lib32/libdbodbc17_r.so.1
lrwxrwxrwx         22 lib32/libdbodbcansi17_r.so
-r-xr-xr-x    1637116 lib32/libdbodbcansi17_r.so.1
lrwxrwxrwx         22 lib32/libdbodbcinst17_r.so
-r-xr-xr-x     483892 lib32/libdbodbcinst17_r.so.1
lrwxrwxrwx         15 lib32/libdbodm17.so
-r-xr-xr-x     610340 lib32/libdbodm17.so.1
lrwxrwxrwx         17 lib32/libdboftsp_r.so
-r-xr-xr-x      79196 lib32/libdboftsp_r.so.1
lrwxrwxrwx         15 lib32/libdbrsa17.so
-r-xr-xr-x    2104352 lib32/libdbrsa17.so.1
lrwxrwxrwx         17 lib32/libdbrsa17_r.so
-r-xr-xr-x    2108164 lib32/libdbrsa17_r.so.1
lrwxrwxrwx         20 lib32/libdbscript17_r.so
-r-xr-xr-x    1091460 lib32/libdbscript17_r.so.1
lrwxrwxrwx         17 lib32/libdbtasks17.so
-r-xr-xr-x     145548 lib32/libdbtasks17.so.1
lrwxrwxrwx         19 lib32/libdbtasks17_r.so
-r-xr-xr-x     166188 lib32/libdbtasks17_r.so.1
lrwxrwxrwx         18 lib32/libdbtool17_r.so
-r-xr-xr-x    2260556 lib32/libdbtool17_r.so.1
lrwxrwxrwx         20 lib32/libodbcinst.so
lrwxrwxrwx         22 lib32/libodbcinst.so.1
lrwxrwxrwx         22 lib32/libodbcinst.so.2
lrwxrwxrwx         14 lib64/libdbcapi.so
-r-xr-xr-x     152232 lib64/libdbcapi.so.1
lrwxrwxrwx         16 lib64/libdbcapi_r.so
-r-xr-xr-x     152248 lib64/libdbcapi_r.so.1
lrwxrwxrwx         20 lib64/libdbextenv17_r.so
-r-xr-xr-x     571128 lib64/libdbextenv17_r.so.1
lrwxrwxrwx         15 lib64/libdbicu17.so
-r-xr-xr-x    1753968 lib64/libdbicu17.so.1
lrwxrwxrwx         17 lib64/libdbicu17_r.so
-r-xr-xr-x    1753048 lib64/libdbicu17_r.so.1
lrwxrwxrwx         17 lib64/libdbicudt17.so
-r-xr-xr-x    4278064 lib64/libdbicudt17.so.1
lrwxrwxrwx         16 lib64/libdbjdbc17.so
-r-xr-xr-x    2787040 lib64/libdbjdbc17.so.1
lrwxrwxrwx         17 lib64/libdbjodbc17.so
-r-xr-xr-x    1319656 lib64/libdbjodbc17.so.1
lrwxrwxrwx         16 lib64/libdbldap17.so
-r-xr-xr-x    2285040 lib64/libdbldap17.so.1
lrwxrwxrwx         18 lib64/libdbldap17_r.so
-r-xr-xr-x    2285040 lib64/libdbldap17_r.so.1
lrwxrwxrwx         15 lib64/libdblib17.so
-r-xr-xr-x    1422744 lib64/libdblib17.so.1
lrwxrwxrwx         17 lib64/libdblib17_r.so
-r-xr-xr-x    1456160 lib64/libdblib17_r.so.1
lrwxrwxrwx         16 lib64/libdbodbc17.so
-r-xr-xr-x     138416 lib64/libdbodbc17.so.1
lrwxrwxrwx         18 lib64/libdbodbc17_n.so
-r-xr-xr-x    1668096 lib64/libdbodbc17_n.so.1
lrwxrwxrwx         18 lib64/libdbodbc17_r.so
-r-xr-xr-x    1702720 lib64/libdbodbc17_r.so.1
lrwxrwxrwx         22 lib64/libdbodbcansi17_r.so
-r-xr-xr-x    1701120 lib64/libdbodbcansi17_r.so.1
lrwxrwxrwx         22 lib64/libdbodbcinst17_r.so
-r-xr-xr-x     542544 lib64/libdbodbcinst17_r.so.1
lrwxrwxrwx         15 lib64/libdbodm17.so
-r-xr-xr-x     690608 lib64/libdbodm17.so.1
lrwxrwxrwx         17 lib64/libdboftsp_r.so
-r-xr-xr-x     101024 lib64/libdboftsp_r.so.1
lrwxrwxrwx         15 lib64/libdbrsa17.so
-r-xr-xr-x    2388384 lib64/libdbrsa17.so.1
lrwxrwxrwx         17 lib64/libdbrsa17_r.so
-r-xr-xr-x    2391880 lib64/libdbrsa17_r.so.1
lrwxrwxrwx         20 lib64/libdbscript17_r.so
-r-xr-xr-x    1093928 lib64/libdbscript17_r.so.1
lrwxrwxrwx         17 lib64/libdbtasks17.so
-r-xr-xr-x     152632 lib64/libdbtasks17.so.1
lrwxrwxrwx         19 lib64/libdbtasks17_r.so
-r-xr-xr-x     167744 lib64/libdbtasks17_r.so.1
lrwxrwxrwx         18 lib64/libdbtool17_r.so
-r-xr-xr-x    2288256 lib64/libdbtool17_r.so.1
lrwxrwxrwx         20 lib64/libodbcinst.so
lrwxrwxrwx         22 lib64/libodbcinst.so.1
lrwxrwxrwx         22 lib64/libodbcinst.so.2
-r-xr-xr-x     936344 node/sqlanywhere-xs/bin32/sqlanywhere_xs_v0_10.node
-r-xr-xr-x     942752 node/sqlanywhere-xs/bin64/sqlanywhere_xs_v0_10.node
-r--r--r--       1076 node/sqlanywhere-xs/lib/index.js
-r--r--r--        289 node/sqlanywhere-xs/package.json
-r-xr-xr-x     891964 node/sqlanywhere_jsextenv/bin32/jsextenv_v0_10.node
-r-xr-xr-x     910408 node/sqlanywhere_jsextenv/bin64/jsextenv_v0_10.node
-r--r--r--        737 node/sqlanywhere_jsextenv/lib/index.js
-r--r--r--        249 node/sqlanywhere_jsextenv/package.json
-r--r--r--      11343 readme_de.txt
-r--r--r--      10777 readme_en.txt
-r--r--r--      11412 readme_fr.txt
-r--r--r--      12294 readme_ja.txt
-r--r--r--      10133 readme_zh.txt
-r--r--r--      15206 res/InteractiveSQL.png
-r--r--r--      15364 res/MobiLinkMonitor.png
-r--r--r--       1016 res/SAMonitor16.png
-r--r--r--       5452 res/SQLAnywhere.png
-r--r--r--       5975 res/SQLAnywhereServer.png
-r--r--r--      15103 res/SQLCentral.png
-r--r--r--     731194 res/dblgde17_iso_1.res
-r--r--r--     738163 res/dblgde17_utf8.res
-r--r--r--     630044 res/dblgen17.res
-r--r--r--     768070 res/dblgfr17_iso_1.res
-r--r--r--     785915 res/dblgfr17_utf8.res
-r--r--r--     683462 res/dblgja17_eucjis.res
-r--r--r--     683454 res/dblgja17_sjis.res
-r--r--r--     902267 res/dblgja17_utf8.res
-r--r--r--     464588 res/dblgzh17_cp936.res
-r--r--r--     464572 res/dblgzh17_eucgb.res
-r--r--r--     581628 res/dblgzh17_utf8.res
-r--r--r--        819 samples/certificates/readme.txt
-rw-rw-rw-       4421 samples/certificates/rsaclient.id
-rw-rw-rw-       4271 samples/certificates/rsaclient_nopwd.id
-rw-rw-rw-       1298 samples/certificates/rsaroot.crt
-rw-rw-rw-       1858 samples/certificates/rsaroot.key
-rw-rw-rw-       4421 samples/certificates/rsaserver.id
-rw-rw-rw-       4267 samples/certificates/rsaserver_nopwd.id
-r--r--r--       6826 sdk/c/sacapidll.c
-r--r--r--        889 sdk/c/sqlcadat.c
-r--r--r--      14908 sdk/include/dbrmt.h
-r--r--r--       1419 sdk/include/dbtlvers.h
-r--r--r--      84024 sdk/include/dbtools.h
-r--r--r--       5585 sdk/include/dllapi.h
-r--r--r--        461 sdk/include/lictype.h
-r--r--r--      29271 sdk/include/mlfiletransfer.h
-r--r--r--     117757 sdk/include/odbc.h
-r--r--r--       2105 sdk/include/poppk.h
-r--r--r--       2232 sdk/include/pshpk1.h
-r--r--r--       2233 sdk/include/pshpk2.h
-r--r--r--       2214 sdk/include/pshpk4.h
-r--r--r--      54620 sdk/include/sacapi.h
-r--r--r--      14558 sdk/include/sacapidll.h
-r--r--r--       2042 sdk/include/saodbc.h
-r--r--r--      10825 sdk/include/sqlca.h
-r--r--r--       2420 sdk/include/sqlda.h
-r--r--r--       7184 sdk/include/sqldef.h
-r--r--r--      89677 sdk/include/sqlerr.h
-r--r--r--       9308 sdk/include/sqlfuncs.h
-r--r--r--       4904 sdk/include/sqlos.h
-r--r--r--      89708 sdk/include/sqlstate.h
-r--r--r--       2829 sdk/include/sqltype.h
-r--r--r--        459 sdk/include/unixodbc.h
-r--r--r--       8906 sdk/perlenv/Makefile.PL
-r--r--r--        956 sdk/perlenv/SAExtEnvIO.pm
-r--r--r--       1333 sdk/perlenv/SAPerlGlue.pm
-r--r--r--        624 sdk/perlenv/consts.h
-r--r--r--       1007 sdk/perlenv/dolink.pl
-r--r--r--       3569 sdk/perlenv/extenv.h
-r--r--r--        950 sdk/perlenv/langload.h
-r--r--r--       7528 sdk/perlenv/perlglue.xs
-r--r--r--       2884 sdk/phpenv/config.m4
-r--r--r--        624 sdk/phpenv/consts.h
-r--r--r--       3569 sdk/phpenv/extenv.h
-r--r--r--        950 sdk/phpenv/langload.h
-r--r--r--       1243 sdk/phpenv/php_sqlanywhere_extenv.h
-r--r--r--      61537 sdk/phpenv/sqlanywhere_extenv.c
-r--r--r--       2023 selinux/README
-r-xr-xr-x        373 selinux/buildfc.sh
-r--r--r--       1135 selinux/sqlanywhere.fct
-r--r--r--       2341 selinux/sqlanywhere.if
-r--r--r--       6880 selinux/sqlanywhere.te
-r--r--r--       6893 support/de/OnlineResources.html
-r--r--r--       5988 support/en/OnlineResources.html
-r--r--r--       7663 support/fr/OnlineResources.html
-r--r--r--       7153 support/ja/OnlineResources.html
-r--r--r--       5394 support/zh/OnlineResources.html
-r--r--r--     309959 thirdpartylegal/SQLAnywhere17ThirdPartyLegal.pdf
-r--r--r--      56420 thirdpartylegal/SQLAnywhere17ThirdPartyLegal.txt
-r--r--r--       6008 tix/default.tix
-r-xr-xr-x      87980 uninstall.sh
ok
